{
  "installed":
  {
    "client_id":"336403564379-gommdu2r9ccimdl9vem1pbherksuhl53.apps.googleusercontent.com",
    "project_id":"mover-gmail-spider",
    "auth_uri":"https://accounts.google.com/o/oauth2/auth",
    "token_uri":"https://accounts.google.com/o/oauth2/token",
    "auth_provider_x509_cert_url":"https://www.googleapis.com/oauth2/v1/certs",
    "client_secret":"yQZ_VxL_y75s9u1itmkqus0n",
    "redirect_uris":["urn:ietf:wg:oauth:2.0:oob","http://localhost"]
  }
}
